<?xml version="1.0" encoding="UTF-8" standalone="no"?>
<!DOCTYPE svg PUBLIC "-//W3C//DTD SVG 1.1//EN" "http://www.w3.org/Graphics/SVG/1.1/DTD/svg11.dtd">
<!--
FIGURINE    : King
SQUARE SIZE : 100x100
CREATOR     : Jonathan Merritt (2020)
DESIGN      : Design is inspired by XBoard, but re-drawn from scratch.

ADDITIONAL COMMENTS:

The figurine is drawn in a square 100x100 units, and can be scaled as
appropriate to squares of other sizes.

There are two version of the figurine stored as two different groups:
  - white-piece
  - black-piece
The two versions share some definitions.
-->
<?xml-stylesheet href="piece-styles.css"?>
<svg width="100%" height="100%"
     viewBox="0 0 100 100"
     version="1.1"
     xmlns="http://www.w3.org/2000/svg">
  <defs>
    <path
        id="outline"
        d="
          M 50,25
          C 56,25 60,34 57,41
          C 82,20 107,49 77,68
          L 76,86
          C 69,89 59,90 50,90
          C 41,90 31,89 24,86
          L 23,68
          C -7,49 18,20 43,41
          C 40,34 44,25 50,25
          Z
          "/>
    <g id="cross">
      <path
          id="horizontal-cross"
          d="
            M 44,14
            L 56,14
            "/>
      <path
          id="vertical-cross"
          d="
            M 50,25
            L 50,8"/>
            "/>
    </g>
    <path
        id="white-piece-right-puff"
        d="
          M 57,41
          C 53,48 50,53 50,61
          "/>
    <path
        id="white-piece-left-puff"
        d="
          M 43,41
          C 47,48 50,53 50,61
          "/>
    <path
        id="white-piece-top-rib"
        d="
          M 77,68
          C 72,64 63,61 50,61
          C 37,61 28,64 23,68
          "/>
    <path
        id="white-piece-middle-rib"
        d="
          M 77,79
          C 71,75 63,73 50,73
          C 37,73 29,75 23,79
          "/>
    <path
        id="white-piece-bottom-rib"
        d="
          M 76,86
          C 71,82 63,79 50,79
          C 37,79 29,82 24,86
          "/>
    <path
        id="black-piece-top-rib"
        d="
          M 74,77
          C 68,75 63,73 50,73
          C 37,73 32,75 26,77
          "/>
    <path
        id="black-piece-bottom-rib" 
        d="
          M 73,84
          C 68,81 63,79 50,79
          C 37,79 32,81 27,84
          "/>
    <path
        id="black-piece-top-loop"
        d="
          M 50,28
          C 56,28 57,37 50,47
          C 43,37 44,28 50,28
          "/>
    <path
        id="black-piece-top-scroll"
        d="
          M 53,63
          C 53,58 54,51 61,42
          C 76,27 105,48 73,66
          C 67,64 59,63 50,63
          C 50,63 33,63 27,66
          C -5,48 24,27 39,42
          C 46,51 47,58 47,63
          "/>
  </defs>
  <symbol id="white-piece" viewBox="0 0 100 100" class="white-piece">
    <use href="#outline" class="outline"/>
    <use href="#cross" class="outline"/>
    <g class="highlight highlight-thick highlight-white">
      <use href="#white-piece-left-puff"/>
      <use href="#white-piece-right-puff"/>
      <use href="#white-piece-top-rib"/>
      <use href="#white-piece-middle-rib"/>
      <use href="#white-piece-bottom-rib"/>
    </g>
  </symbol>
  <symbol id="black-piece" viewBox="0 0 100 100" class="black-piece">
    <use href="#outline" class="outline"/>
    <use href="#cross" class="outline"/>
    <g class="highlight highlight-thick highlight-black">
      <use href="#black-piece-top-rib"/>
      <use href="#black-piece-bottom-rib"/>
      <use href="#black-piece-top-loop"/>
      <use href="#black-piece-top-scroll"/>
    </g>
  </symbol>
</svg>
