<?xml version="1.0" encoding="UTF-8" standalone="no"?>
<!DOCTYPE svg PUBLIC "-//W3C//DTD SVG 1.1//EN" "http://www.w3.org/Graphics/SVG/1.1/DTD/svg11.dtd">
<!--
FIGURINE    : Knight
SQUARE SIZE : 100x100
CREATOR     : Jonathan Merritt (2020)
DESIGN      : Design is inspired by XBoard, but re-drawn from scratch.

ADDITIONAL COMMENTS:

The figurine is drawn in a square 100x100 units, and can be scaled as
appropriate to squares of other sizes.

There are two version of the figurine stored as two different groups:
  - white-piece
  - black-piece
The two versions share some definitions.
-->
<?xml-stylesheet href="piece-styles.css"?>
<svg width="100%" height="100%"
     viewBox="0 0 100 100"
     version="1.1"
     xmlns="http://www.w3.org/2000/svg">
  <defs>
    <path
        id="outline"
        d="
          M 50,20
          C 58,16 89,24 89,90
          L 31,90
          C 31,65 54,77 54,37
          C 53,52 46,52 41,54
          C 37,56 33,59 31,62
          C 29,65 27,70 24,71
          C 22,72 19,69 19,68
          C 17,70 13,70 11,66
          C  9,62  9,57 11,54
          C 15,48 20,43 21,35
          C 22,30 23,26 28,22
          C 26,18 27,15 27,10
          C 30,12 37,15 38,20
          C 41,18 42,13 45,10
          C 48,13 49,17 50,20
          Z
          "/>
    <path
        id="nostril"
        d="
          M 17,55
          C 15,55 13,58 13,59
          C 13,60 15,62 16,62
          C 17,62 20,59 20,58
          C 20,57 18,55 17,55
          Z
          "/>
    <path
        id="eyebrow"
        d="
          M 26,37
          C 27,32 29,29 35,29
          "/>
    <path
        id="eye"
        d="
          M 27,35
          C 33,37 35,33 33,29
          C 29,30 27,32 27,35
          Z
          "/>
    <path
        id="black-piece-mane"
        d="
          M 51,21
          C 51,22 53,24 54,24
          C 76,28 80,61 80,87
          L 87,87
          C 87,40 66,16 51,21
          Z
          "/>
    <path
        id="white-piece-mane"
        d="
          M 54,20
          C 60,21 84,28 84,90
          L 89,90
          C 89,30 64,19 54,19
          Z
          "/>
    <path
        id="black-piece-mouth"
        d="
          M 20,67
          C 22,65 22,64 24,62
          "/>
    <path
        id="white-piece-mouth"
        d="
          M 19,67
          C 20,67 23,63 24,62
          "/>
    <path
        id="black-piece-cheek"
        d="
          M 46,49
          C 48,48 50,46 52,43
          "/>
    <path
        id="black-piece-forelock"
        d="
          M 38,20
          C 36,21 35,22 32,23
          "/>
    <path
        id="white-piece-forelock"
        d="
          M 38,20
          C 36,22 35,23 33,24
          "/>
    <path
        id="white-piece-mane-extension"
        d="
          M 50,20
          C 49,21 49,21 48,22
          "/>
  </defs>
  <symbol id="white-piece" viewBox="0 0 100 100" class="white-piece">
    <use href="#outline" class="outline"/>
    <g class="highlight highlight-fill-white">
      <use href="#nostril"/>
      <use href="#eye"/>
      <use href="#white-piece-mane"/>
    </g>
    <g class="highlight highlight-thin highlight-white">
      <use href="#eyebrow"/>
      <use href="#white-piece-mouth"/>
      <use href="#white-piece-mane-extension"/>
      <use href="#white-piece-forelock"/>
    </g>
  </symbol>
  <symbol id="black-piece" viewBox="0 0 100 100" class="black-piece">
    <use href="#outline" class="outline"/>
    <g class="highlight highlight-fill-black">
      <use href="#nostril"/>
      <use href="#eye"/>
      <use href="#black-piece-mane"/>
    </g>
    <g class="highlight highlight-thin highlight-black">
      <use href="#eyebrow"/>
      <use href="#black-piece-mouth"/>
      <use href="#black-piece-forelock"/>
      <use href="#black-piece-cheek"/>
    </g>
  </symbol>
</svg>
