<?xml version="1.0" encoding="UTF-8" standalone="no"?>
<!DOCTYPE svg PUBLIC "-//W3C//DTD SVG 1.1//EN" "http://www.w3.org/Graphics/SVG/1.1/DTD/svg11.dtd">
<?xml-stylesheet href="piece-styles.css"?>
<svg width="100%" height="100%"
     viewBox="0 0 100 100"
     version="1.1"
     xmlns="http://www.w3.org/2000/svg">
  <defs>
    <symbol id="black-square" width="1" height="1">
      <rect width="1" height="1" class="black-square"/>
    </symbol>
    <symbol id="white-square" width="1" height="1">
      <rect width="1" height="1" class="white-square"/>
    </symbol>
    <symbol id="white-king" width="1" height="1">
      <use width="1" height="1" href="king.svg#white-piece"/>
    </symbol>
    <symbol id="white-queen" width="1" height="1">
      <use width="1" height="1" href="queen.svg#white-piece"/>
    </symbol>
    <symbol id="white-bishop" width="1" height="1">
      <use width="1" height="1" href="bishop.svg#white-piece"/>
    </symbol>
    <symbol id="white-knight" width="1" height="1">
      <use width="1" height="1" href="knight.svg#white-piece"/>
    </symbol>
    <symbol id="white-rook" width="1" height="1">
      <use width="1" height="1" href="rook.svg#white-piece"/>
    </symbol>
    <symbol id="white-pawn" width="1" height="1">
      <use width="1" height="1" href="pawn.svg#white-piece"/>
    </symbol>
    <symbol id="black-king" width="1" height="1">
      <use width="1" height="1" href="king.svg#black-piece"/>
    </symbol>
    <symbol id="black-queen" width="1" height="1">
      <use width="1" height="1" href="queen.svg#black-piece"/>
    </symbol>
    <symbol id="black-bishop" width="1" height="1">
      <use width="1" height="1" href="bishop.svg#black-piece"/>
    </symbol>
    <symbol id="black-knight" width="1" height="1">
      <use width="1" height="1" href="knight.svg#black-piece"/>
    </symbol>
    <symbol id="black-rook" width="1" height="1">
      <use width="1" height="1" href="rook.svg#black-piece"/>
    </symbol>
    <symbol id="black-pawn" width="1" height="1">
      <use width="1" height="1" href="pawn.svg#black-piece"/>
    </symbol>
    <symbol id="black-row" width="8" height="1">
      <use x="0" href="#black-square"/>
      <use x="1" href="#white-square"/>
      <use x="2" href="#black-square"/>
      <use x="3" href="#white-square"/>
      <use x="4" href="#black-square"/>
      <use x="5" href="#white-square"/>
      <use x="6" href="#black-square"/>
      <use x="7" href="#white-square"/>
    </symbol>
    <symbol id="white-row" width="8" height="1">
      <use x="0" href="#white-square"/>
      <use x="1" href="#black-square"/>
      <use x="2" href="#white-square"/>
      <use x="3" href="#black-square"/>
      <use x="4" href="#white-square"/>
      <use x="5" href="#black-square"/>
      <use x="6" href="#white-square"/>
      <use x="7" href="#black-square"/>
    </symbol>
    <symbol id="board" width="8" height="8">
      <use y="0" href="#white-row"/>
      <use y="1" href="#black-row"/>
      <use y="2" href="#white-row"/>
      <use y="3" href="#black-row"/>
      <use y="4" href="#white-row"/>
      <use y="5" href="#black-row"/>
      <use y="6" href="#white-row"/>
      <use y="7" href="#black-row"/>
    </symbol>
  </defs>
  <g transform="scale(10)">
    <use href="#board"/>
    <use x="0" y="0" href="#black-rook"/>
    <use x="1" y="0" href="#black-knight"/>
    <use x="2" y="0" href="#black-bishop"/>
    <use x="3" y="0" href="#black-queen"/>
    <use x="4" y="0" href="#black-king"/>
    <use x="5" y="0" href="#black-bishop"/>
    <use x="6" y="0" href="#black-knight"/>
    <use x="7" y="0" href="#black-rook"/>

    <use x="0" y="1" href="#black-pawn"/>
    <use x="1" y="1" href="#black-pawn"/>
    <use x="2" y="1" href="#black-pawn"/>
    <use x="3" y="1" href="#black-pawn"/>
    <use x="4" y="1" href="#black-pawn"/>
    <use x="5" y="1" href="#black-pawn"/>
    <use x="6" y="1" href="#black-pawn"/>
    <use x="7" y="1" href="#black-pawn"/>

    <use x="0" y="6" href="#white-pawn"/>
    <use x="1" y="6" href="#white-pawn"/>
    <use x="2" y="6" href="#white-pawn"/>
    <use x="3" y="6" href="#white-pawn"/>
    <use x="4" y="6" href="#white-pawn"/>
    <use x="5" y="6" href="#white-pawn"/>
    <use x="6" y="6" href="#white-pawn"/>
    <use x="7" y="6" href="#white-pawn"/>

    <use x="0" y="7" href="#white-rook"/>
    <use x="1" y="7" href="#white-knight"/>
    <use x="2" y="7" href="#white-bishop"/>
    <use x="3" y="7" href="#white-queen"/>
    <use x="4" y="7" href="#white-king"/>
    <use x="5" y="7" href="#white-bishop"/>
    <use x="6" y="7" href="#white-knight"/>
    <use x="7" y="7" href="#white-rook"/>
  </g>
</svg>
