<?xml version="1.0" encoding="UTF-8" standalone="no"?>
<!DOCTYPE svg PUBLIC "-//W3C//DTD SVG 1.1//EN" "http://www.w3.org/Graphics/SVG/1.1/DTD/svg11.dtd">
<!--
FIGURINE    : Queen
SQUARE SIZE : 100x100
CREATOR     : Jonathan Merritt (2020)
DESIGN      : Design is inspired by XBoard, but re-drawn from scratch.

ADDITIONAL COMMENTS:

The figurine is drawn in a square 100x100 units, and can be scaled as
appropriate to squares of other sizes.

There are two version of the figurine stored as two different groups:
  - white-piece
  - black-piece
The two versions share some definitions.
-->
<?xml-stylesheet href="piece-styles.css"?>
<svg width="100%" height="100%"
     viewBox="0 0 100 100"
     version="1.1"
     xmlns="http://www.w3.org/2000/svg">
  <defs>
    <path
        id="outline"
        d="
          M 42,56
          L 50,17
          L 58,56
          L 71,20
          L 72,57
          L 89,28
          L 83,60
          C 77,68 76,69 76,76
          C 76,81 79,83 79,86
          C 79,90 65,92 50,92
          C 35,92 21,90 21,86
          C 21,83 24,81 24,76
          C 24,69 23,68 17,60
          L 11,28
          L 28,57
          L 29,20
          L 42,56
          Z
          "/>
    <g id="baubles">
      <circle id="bauble-left" cx="10" cy="24" r="5"/>
      <circle id="bauble-mid-left" cx="28" cy="16" r="5"/>
      <circle id="bauble-center" cx="50" cy="12" r="5"/>
      <circle id="bauble-mid-right" cx="72" cy="16" r="5"/>
      <circle id="bauble-right" cx="90" cy="24" r="5"/>
    </g>
    <path
        id="white-piece-corona"
        d="
          M 17,60
          C 19,59 21,58 22,57
          C 26,59 32,58 35,55
          C 38,57 45,58 50,55
          C 55,58 62,57 65,55
          C 68,58 74,59 78,57
          C 79,58 81,59 83,60
          "/>
    <path
        id="white-piece-top-rib"
        d="
          M 77,68
          C 73,67 59,65 50,65
          C 40,65 27,67 23,68
          "/>
    <path
        id="white-piece-mid-rib"
        d="
          M 76,77
          C 71,76 59,74 50,74
          C 41,74 29,76 24,77
          "/>
    <path
        id="white-piece-bottom-rib"
        d="
          M 79,84
          C 74,83 59,81 50,81
          C 41,81 26,83 21,84
          "/>
    <path
        id="black-piece-bottom-rib"
        d="
          M 73,67
          C 69,66 59,65 50,65
          C 41,65 31,66 27,67
          "/>
    <path
        id="black-piece-top-rib"
        d="
          M 72,76
          C 67,75 59,74 50,74
          C 41,74 33,75 28,76
          "/>
  </defs>
  <symbol id="white-piece" viewBox="0 0 100 100" class="white-piece">
    <use href="#outline" class="outline"/>
    <use href="#baubles" class="outline"/>
    <g class="highlight highlight-thick highlight-white">
      <use href="#white-piece-corona"/>
      <use href="#white-piece-top-rib"/>
      <use href="#white-piece-mid-rib"/>
      <use href="#white-piece-bottom-rib"/>
    </g>
  </symbol>
  <symbol id="black-piece" viewBox="0 0 100 100" class="black-piece">
    <use href="#outline" class="outline"/>
    <use href="#baubles" class="outline"/>
    <g class="highlight highlight-thick highlight-black">
      <use href="#black-piece-bottom-rib"/>
      <use href="#black-piece-top-rib"/>
    </g>
  </symbol>
</svg>
